…
homi_summary = homi_new %>%
  group_by(city_state) %>%
  summarise(
    total_homicides = n(),
    unsolved_homicides = sum(disposition %in% c("Closed without arrest", "Open/No arrest"))
  )

homi_summary
```

    ## # A tibble: 51 × 3
    ##    city_state      total_homicides unsolved_homicides
    ##    <chr>                     <int>              <int>
    ##  1 Albuquerque, NM             378                146
    ##  2 Atlanta, GA                 973                373
    ##  3 Baltimore, MD              2827               1825
    ##  4 Baton Rouge, LA             424                196
    ##  5 Birmingham, AL              800                347
    ##  6 Boston, MA                  614                310
    ##  7 Buffalo, NY                 521                319
    ##  8 Charlotte, NC               687                206
    ##  9 Chicago, IL                5535               4073
    ## 10 Cincinnati, OH              694                309
    ## # ℹ 41 more rows
…
# Get unique city_state values from homi_summary
cs = unique(pull(homi_summary, city_state))

# Create a dataframe with all unique city_state values
all_cities = data.frame(city_state = cs)

# Use purrr::map and unnest
result_df = all_cities %>%
  mutate(result = map(city_state, loop_ci)) %>%
  unnest(result) 

print(result_df)
```

    ## # A tibble: 51 × 5
    ##    city_state      estimate_prop ci_low ci_high confidence_interval             
    ##    <chr>                   <dbl>  <dbl>   <dbl> <chr>                           
    ##  1 Albuquerque, NM         0.386  0.337   0.438 (0.337260384254284,0.4375766065…
    ##  2 Atlanta, GA             0.383  0.353   0.415 (0.352811897036302,0.4148218839…
    ##  3 Baltimore, MD           0.646  0.628   0.663 (0.627562457662644,0.6631598604…
    ##  4 Baton Rouge, LA         0.462  0.414   0.511 (0.414198741860307,0.5110239600…
    ##  5 Birmingham, AL          0.434  0.399   0.469 (0.399188948632167,0.4689557481…
    ##  6 Boston, MA              0.505  0.465   0.545 (0.464621930200304,0.5450880517…
    ##  7 Buffalo, NY             0.612  0.569   0.654 (0.568798964634228,0.6540879392…
    ##  8 Charlotte, NC           0.300  0.266   0.336 (0.26608198188312,0.33589986086…
    ##  9 Chicago, IL             0.736  0.724   0.747 (0.723995888425454,0.7473997873…
    ## 10 Cincinnati, OH          0.445  0.408   0.483 (0.407960574220688,0.4831438806…
    ## # ℹ 41 more rows
…
``` r
# tidy the data
tidy_data = 
  all_data %>% mutate(
    files = str_replace(files, ".csv", ""),
    group = str_sub(files, 1, 3),
    ID = str_sub(files, 5, 7)) %>% 
  pivot_longer(week_1:week_8,names_to = "week", values_to = "observation",names_prefix = "week_") %>% 
  mutate(week = as.numeric(week)) %>% 
  dplyr::select(group, ID, week, observation)

tidy_data
```

    ## # A tibble: 160 × 4
    ##    group ID     week observation
    ##    <chr> <chr> <dbl>       <dbl>
    ##  1 con   01        1        0.2 
    ##  2 con   01        2       -1.31
    ##  3 con   01        3        0.66
    ##  4 con   01        4        1.96
    ##  5 con   01        5        0.23
    ##  6 con   01        6        1.09
    ##  7 con   01        7        0.05
    ##  8 con   01        8        1.94
    ##  9 con   02        1        1.13
    ## 10 con   02        2       -0.88
    ## # ℹ 150 more rows
…
res_list <- map2(sample, 1:5000, ~ t_test(.x) %>%
                   mutate(iteration = .y))

mean_0 = bind_rows(res_list) %>%
  mutate(mean = 0, .before = 1) %>%
  dplyr::select(mean, iteration, everything())

mean_0
```

    ## # A tibble: 5,000 × 4
    ##     mean iteration estimate p_value
    ##    <dbl>     <int>    <dbl>   <dbl>
    ##  1     0         1   1.32    0.195 
    ##  2     0         2   1.86    0.0874
    ##  3     0         3   1.26    0.196 
    ##  4     0         4  -0.469   0.622 
    ##  5     0         5  -2.06    0.0226
    ##  6     0         6   0.605   0.483 
    ##  7     0         7  -1.21    0.248 
    ##  8     0         8   1.75    0.0490
    ##  9     0         9  -1.39    0.106 
    ## 10     0        10  -0.0423  0.962 
    ## # ℹ 4,990 more rows
…
